0.029
0.029
0.028
0.02
0.02
0.019
0.02
0.02
0.02
0.02
0.02
0.02
0.02
0.02
0.019
0.02
0.02
0.02
0.019
0.02
0.02
0.02
0.02
0.02
0.019
0.02
0.019
0.02
0.019
0.02
0.019
0.029
0.028
0.028
0.028
0.028
0.024
0.02
0.02
0.02
0.02
0.02
0.02
0.02
0.019
0.02
0.019
0.02
0.02
0.02
0.02
0.02
0.02
0.02
0.019
0.019
0.02
0.019
0.02
0.02
0.022
0.02
0.019
0.02
0.022
0.027
0.029
0.029
0.029
0.028
0.021
0.02
0.02
0.019
0.02
0.02
0.019
0.02
0.02
0.02
0.02
0.019
0.019
0.019
0.02
0.02
0.02
0.02
0.02
0.02
0.019
0.02
0.019
0.02
0.02
0.02
0.019
0.02
0.026
0.028
0.029
0.021
0.02
0.019
0.02
0.02
0.02
0.019
0.02
0.02
0.02
0.02
0.019
0.02
0.02
0.02
0.021
0.02
0.02
0.02
0.02
0.02
0.02
0.02
0.02
0.021
0.02
0.02
0.02
0.028
0.029
0.028
0.02
0.02
0.019
0.02
0.02
0.02
0.019
0.02
0.019
0.02
0.02
0.02
0.02
0.019
0.02
0.02
0.02
0.02
0.02
0.02
0.02
0.02
0.02
0.02
0.02
0.02
0.02
0.02
0.029
0.029
0.028
0.028
0.028
0.028
0.028
0.029
0.028
0.02
0.02
0.02
0.019
0.02
0.02
0.02
0.02
0.02
0.019
0.02
0.02
0.019
0.02
0.02
0.02
0.02
0.02
0.02
0.02
0.02
0.02
0.02
0.02
0.02
0.02
0.02
0.02
0.029
0.028
0.028
