0.028
0.027
0.028
0.02
0.019
0.019
0.02
0.019
0.02
0.019
0.02
0.019
0.019
0.019
0.019
0.02
0.019
0.02
0.019
0.019
0.019
0.019
0.019
0.019
0.02
0.019
0.02
0.02
0.02
0.019
0.019
0.02
0.028
0.028
0.028
0.028
0.028
0.026
0.019
0.02
0.019
0.019
0.019
0.019
0.019
0.019
0.019
0.019
0.019
0.019
0.02
0.019
0.02
0.019
0.019
0.019
0.019
0.02
0.019
0.019
0.019
0.019
0.02
0.019
0.02
0.02
0.022
0.028
0.028
0.027
0.028
0.028
0.023
0.019
0.022
0.019
0.019
0.02
0.019
0.02
0.02
0.019
0.019
0.02
0.02
0.02
0.019
0.02
0.02
0.02
0.019
0.02
0.019
0.02
0.019
0.019
0.019
0.02
0.019
0.019
0.02
0.027
0.028
0.028
0.02
0.019
0.02
0.019
0.019
0.019
0.02
0.019
0.02
0.02
0.019
0.019
0.019
0.02
0.019
0.019
0.019
0.02
0.019
0.019
0.02
0.02
0.02
0.019
0.02
0.019
0.019
0.02
0.019
0.032
0.027
0.028
0.02
0.02
0.019
0.019
0.02
0.019
0.019
0.019
0.019
0.019
0.019
0.02
0.019
0.019
0.019
0.019
0.019
0.019
0.019
0.019
0.019
0.019
0.019
0.019
0.019
0.019
0.02
0.019
0.023
0.027
0.028
0.028
0.027
0.028
0.021
0.019
0.019
0.019
0.02
0.019
0.019
0.019
0.02
0.019
0.019
0.019
0.019
0.019
0.019
0.019
0.019
0.019
0.019
0.02
0.02
0.019
0.019
0.019
0.019
0.02
0.02
0.019
0.023
0.028
