0.009
0.009
0.009
0.009
0.009
0.009
0.007
0.006
0.006
0.007
0.007
0.007
0.007
0.007
0.006
0.006
0.007
0.007
0.006
0.007
0.006
0.006
0.006
0.007
0.006
0.007
0.007
0.007
0.006
0.006
0.006
0.007
0.007
0.007
0.006
0.006
0.007
0.006
0.007
0.01
0.006
0.006
0.007
0.007
0.007
0.007
0.007
0.006
0.007
0.007
0.007
0.007
0.007
0.006
0.006
0.007
0.007
0.007
0.007
0.006
0.007
0.006
0.007
0.007
0.007
0.007
0.007
0.007
0.008
0.009
0.009
0.009
0.009
0.009
0.006
0.006
0.006
0.007
0.007
0.007
0.007
0.006
0.006
0.006
0.006
0.007
0.007
0.006
0.006
0.006
0.007
0.007
0.007
0.007
0.007
0.006
0.006
0.007
0.007
0.007
0.006
0.006
0.006
0.006
0.007
0.007
0.006
0.006
0.006
0.006
0.007
0.007
0.007
0.006
0.006
0.006
0.006
0.006
0.007
0.007
0.006
0.006
0.007
0.007
0.006
0.006
0.006
0.007
0.007
0.006
0.006
0.006
0.006
0.007
0.007
0.008
0.008
0.008
0.009
0.009
0.009
0.006
0.007
0.007
0.007
0.006
0.007
0.006
0.006
0.007
0.007
0.007
0.006
0.007
0.006
0.007
0.007
0.007
0.007
0.006
0.007
0.006
0.007
0.007
0.006
0.006
0.006
0.007
0.007
0.007
0.007
0.006
0.007
0.006
0.007
0.006
0.007
0.007
0.007
0.006
0.007
0.007
0.007
0.007
0.006
0.006
0.007
0.007
0.006
0.007
0.006
0.006
0.007
0.007
0.006
0.006
0.006
0.006
0.006
0.006
