130.688
131.648
131.421
131.726
130.669
130.655
130.64
131.632
130.674
130.708
131.725
130.974
131.457
131.784
130.714
130.715
131.862
131.494
130.756
131.555
130.799
131.593
130.874
131.817
131.589
130.873
132.014
130.785
131.975
130.783
131.812
130.808
131.538
131.772
131.868
131.627
131.852
130.855
131.757
131.867
131.872
130.946
130.875
132.023
130.881
130.885
131.198
131.997
130.87
131.708
131.689
130.91
130.871
131.968
130.864
131.906
132.001
132.098
132.034
130.849
131.782
131.899
131.949
131.994
131.979
131.054
130.867
131.692
131.306
131.77
131.76
131.764
131.949
131.959
130.914
132.0
131.902
131.658
130.873
131.715
131.657
131.929
131.924
131.891
131.66
131.98
130.847
131.447
131.919
131.063
131.968
130.796
131.907
130.867
130.865
131.751
131.915
132.092
131.796
130.926
130.867
131.925
130.977
131.945
130.928
132.032
130.858
130.828
131.889
130.987
132.088
130.985
130.837
130.781
132.022
130.978
130.912
131.931
131.011
132.029
130.906
131.896
130.938
130.885
130.868
130.887
130.869
130.882
130.87
130.749
131.907
130.863
131.096
130.953
130.88
130.846
130.792
131.333
130.938
130.978
131.039
130.833
132.908
130.882
131.924
130.934
131.929
130.935
130.903
130.989
131.865
130.952
130.83
130.938
130.895
130.956
131.921
130.883
130.911
131.956
134.125
134.029
135.051
135.117
135.079
134.179
135.075
132.897
132.957
135.158
130.962
132.017
130.879
131.882
131.907
131.917
130.791
131.989
130.937
132.943
131.961
131.7
130.83
132.997
130.932
130.832
130.855
131.958
134.346
131.98
131.658
130.799
131.874
130.928
131.71
131.606
131.95
131.938
131.007
130.913
